%YAML 1.1
%TAG !u! tag:unity3d.com,2011:
--- !u!65 &1370544568
BoxCollider:
  m_ObjectHideFlags: 0
  m_CorrespondingSourceObject: {fileID: 0}
  m_PrefabInstance: {fileID: 0}
  m_PrefabAsset: {fileID: 0}
  m_GameObject: {fileID: 211276136523847226}
  m_Material: {fileID: 0}
  m_IsTrigger: 0
  m_Enabled: 1
  serializedVersion: 2
  m_Size: {x: 0.22792965, y: 0.2193207, z: 0.14523664}
  m_Center: {x: -0.051643234, y: 0.043254625, z: 0.0047117993}
--- !u!114 &1370544567
MonoBehaviour:
  m_ObjectHideFlags: 0
  m_CorrespondingSourceObject: {fileID: 0}
  m_PrefabInstance: {fileID: 0}
  m_PrefabAsset: {fileID: 0}
  m_GameObject: {fileID: 211276136523847226}
  m_Enabled: 1
  m_EditorHideFlags: 0
  m_Script: {fileID: 11500000, guid: 96f88511f07a37944874838924c193c7, type: 3}
  m_Name: 
  m_EditorClassIdentifier: 
  valor: 100
  Ref1: {fileID: 34959885265380799}
  "multiplicadorDa\xF1o": 2
  textoFlotantePrefab: {fileID: 8626889817620853050, guid: f7422d7a304fa824e90aed1266367a5b,
    type: 3}
  "da\xF1oTotal": 0
--- !u!1001 &34959886387831660
PrefabInstance:
  m_ObjectHideFlags: 0
  serializedVersion: 2
  m_Modification:
    m_TransformParent: {fileID: 0}
    m_Modifications:
    - target: {fileID: 1328105169, guid: 5674cf3c322bbe04fb68ba2093911652, type: 3}
      propertyPath: m_Height
      value: 1.6153897
      objectReference: {fileID: 0}
    - target: {fileID: 1328105169, guid: 5674cf3c322bbe04fb68ba2093911652, type: 3}
      propertyPath: m_Center.x
      value: 0.0052364054
      objectReference: {fileID: 0}
    - target: {fileID: 1328105169, guid: 5674cf3c322bbe04fb68ba2093911652, type: 3}
      propertyPath: m_Center.y
      value: 0.7392869
      objectReference: {fileID: 0}
    - target: {fileID: 185396704370865494, guid: 5674cf3c322bbe04fb68ba2093911652,
        type: 3}
      propertyPath: m_TagString
      value: Enemigo
      objectReference: {fileID: 0}
    - target: {fileID: 1377765054218822186, guid: 5674cf3c322bbe04fb68ba2093911652,
        type: 3}
      propertyPath: m_RootOrder
      value: 0
      objectReference: {fileID: 0}
    - target: {fileID: 1377765054218822186, guid: 5674cf3c322bbe04fb68ba2093911652,
        type: 3}
      propertyPath: m_LocalPosition.x
      value: -37.783623
      objectReference: {fileID: 0}
    - target: {fileID: 1377765054218822186, guid: 5674cf3c322bbe04fb68ba2093911652,
        type: 3}
      propertyPath: m_LocalPosition.y
      value: 0.01
      objectReference: {fileID: 0}
    - target: {fileID: 1377765054218822186, guid: 5674cf3c322bbe04fb68ba2093911652,
        type: 3}
      propertyPath: m_LocalPosition.z
      value: 36.592926
      objectReference: {fileID: 0}
    - target: {fileID: 1377765054218822186, guid: 5674cf3c322bbe04fb68ba2093911652,
        type: 3}
      propertyPath: m_LocalRotation.w
      value: 0.00081560604
      objectReference: {fileID: 0}
    - target: {fileID: 1377765054218822186, guid: 5674cf3c322bbe04fb68ba2093911652,
        type: 3}
      propertyPath: m_LocalRotation.x
      value: -0
      objectReference: {fileID: 0}
    - target: {fileID: 1377765054218822186, guid: 5674cf3c322bbe04fb68ba2093911652,
        type: 3}
      propertyPath: m_LocalRotation.y
      value: 0.9999997
      objectReference: {fileID: 0}
    - target: {fileID: 1377765054218822186, guid: 5674cf3c322bbe04fb68ba2093911652,
        type: 3}
      propertyPath: m_LocalRotation.z
      value: -0
      objectReference: {fileID: 0}
    - target: {fileID: 1377765054218822186, guid: 5674cf3c322bbe04fb68ba2093911652,
        type: 3}
      propertyPath: m_LocalEulerAnglesHint.x
      value: 0
      objectReference: {fileID: 0}
    - target: {fileID: 1377765054218822186, guid: 5674cf3c322bbe04fb68ba2093911652,
        type: 3}
      propertyPath: m_LocalEulerAnglesHint.y
      value: 179.90701
      objectReference: {fileID: 0}
    - target: {fileID: 1377765054218822186, guid: 5674cf3c322bbe04fb68ba2093911652,
        type: 3}
      propertyPath: m_LocalEulerAnglesHint.z
      value: 0
      objectReference: {fileID: 0}
    - target: {fileID: 2685719726348177465, guid: 5674cf3c322bbe04fb68ba2093911652,
        type: 3}
      propertyPath: m_Name
      value: Enemigo1
      objectReference: {fileID: 0}
    m_RemovedComponents: []
  m_SourcePrefab: {fileID: 100100000, guid: 5674cf3c322bbe04fb68ba2093911652, type: 3}
--- !u!114 &34959885265380799 stripped
MonoBehaviour:
  m_CorrespondingSourceObject: {fileID: 1328105171, guid: 5674cf3c322bbe04fb68ba2093911652,
    type: 3}
  m_PrefabInstance: {fileID: 34959886387831660}
  m_PrefabAsset: {fileID: 0}
  m_GameObject: {fileID: 0}
  m_Enabled: 1
  m_EditorHideFlags: 0
  m_Script: {fileID: 11500000, guid: 96f88511f07a37944874838924c193c7, type: 3}
  m_Name: 
  m_EditorClassIdentifier: 
--- !u!1 &211276136523847226 stripped
GameObject:
  m_CorrespondingSourceObject: {fileID: 185396704370865494, guid: 5674cf3c322bbe04fb68ba2093911652,
    type: 3}
  m_PrefabInstance: {fileID: 34959886387831660}
  m_PrefabAsset: {fileID: 0}
